…
    ## .
    ##   . a c d e f g h i j k l m n o p q s t u x 
    ## 7 1 1 2 1 5 1 1 2 2 1 1 1 1 2 2 2 1 1 3 2 1

Working in a data frame? `tidyr` has its own version of this. Here’s an
example from Resource 1, with the fruit data:

``` r
tibble(fruit)
```

    ## # A tibble: 80 x 1
    ##    fruit       
    ##    <chr>       
    ##  1 apple       
    ##  2 apricot     
    ##  3 avocado     
    ##  4 banana      
    ##  5 bell pepper 
    ##  6 bilberry    
    ##  7 blackberry  
    ##  8 blackcurrant
    ##  9 blood orange
    ## 10 blueberry   
    ## # ... with 70 more rows

``` r
tibble(fruit) %>%
  separate(fruit, into = c("pre", "post"), sep = " ")
```

    ## Warning: Expected 2 pieces. Missing pieces filled with `NA` in 69 rows [1,
    ## 2, 3, 4, 6, 7, 8, 10, 11, 12, 14, 15, 16, 18, 19, 20, 21, 22, 23, 24, ...].

    ## # A tibble: 80 x 2
    ##    pre          post  
    ##    <chr>        <chr> 
    ##  1 apple        <NA>  
    ##  2 apricot      <NA>  
    ##  3 avocado      <NA>  
    ##  4 banana       <NA>  
    ##  5 bell         pepper
    ##  6 bilberry     <NA>  
    ##  7 blackberry   <NA>  
    ##  8 blackcurrant <NA>  
    ##  9 blood        orange
    ## 10 blueberry    <NA>  
    ## # ... with 70 more rows
…
